<svg width="40" height="41" viewBox="0 0 40 41" fill="none" xmlns="http://www.w3.org/2000/svg">
<rect width="40" height="41" fill="#1E1E1E"/>
<g id="page">
<rect width="1400" height="1536" transform="translate(-52 -44)" fill="#F5F7F9"/>
<g id="header">
<g id="logo">
<g id="logo_2">
<circle id="Ellipse 1" cx="20" cy="20.5" r="20" fill="#425DF8"/>
<path id="Vector 1" d="M8 12.5H15.5M31.5 12.5V24.5M31.5 12.5L15.5 30.5V12.5M31.5 12.5H15.5" stroke="white" stroke-width="2.5"/>
</g>
</g>
</g>
</g>
</svg>
